…
> sat_scores %>% summarise(avg_total = mean(sat_scores$total_score))
# A tibble: 1 x 1
  avg_total
      <dbl>
1     1207.
```
## Step 6:Which school is get highest SAT score ?
 เเสดงชื่อโรงเรียนเเละคะเเนนสูงสุดของเเต่ละโรงเรียน โดยใช้เครื่องมือ  select() และทำการจัดลำดับคะเเนนโดยใช้ arrange()
```
sat_scores %>% select(school_name,total_score) %>% arrange(desc(total_score))
```
Result:
```
> sat_scores %>% select(school_name,total_score) %>% arrange(desc(total_score))
# A tibble: 416 x 2
   school_name                                                          total_score
   <chr>                                                                      <dbl>
 1 BRONX HIGH SCHOOL OF SCIENCE                                                1969
 2 STATEN ISLAND TECHNICAL HIGH SCHOOL                                         1953
 3 HIGH SCHOOL OF AMERICAN STUDIES AT LEHMAN COLLEGE                           1920
 4 TOWNSEND HARRIS HIGH SCHOOL                                                 1910
 5 QUEENS HIGH SCHOOL FOR THE SCIENCES AT YORK COLLEGE                         1868
 6 BARD HIGH SCHOOL EARLY COLLEGE                                              1856
 7 HIGH SCHOOL FOR MATHEMATICS, SCIENCE AND ENGINEERING AT CITY COLLEGE        1847
 8 BROOKLYN TECHNICAL HIGH SCHOOL                                              1833
 9 ELEANOR ROOSEVELT HIGH SCHOOL                                               1758
10 BEACON HIGH SCHOOL                                                          1744
# ... with 406 more rows
…
